LAB5/simulation/qsim/Taillight.msim.vcd
$comment
	File created using the following command:
		vcd file Taillight.msim.vcd -direction
$end
$date
	Wed Dec 07 12:13:04 2016
$end
$version
	ModelSim Version 10.1d
$end
$timescale
	1ps
$end
$scope module Taillight_vlg_vec_tst $end
$var reg 1 ! clock $end
$var reg 1 " Haz $end
$var reg 1 # L $end
$var reg 1 $ R $end
$var reg 1 % reset $end
$var wire 1 & Lights [5] $end
$var wire 1 ' Lights [4] $end
$var wire 1 ( Lights [3] $end
$var wire 1 ) Lights [2] $end
$var wire 1 * Lights [1] $end
$var wire 1 + Lights [0] $end
$var wire 1 , sampler $end
$scope module i1 $end
$var wire 1 - gnd $end
$var wire 1 . vcc $end
$var wire 1 / unknown $end
$var tri1 1 0 devclrn $end
$var tri1 1 1 devpor $end
$var tri1 1 2 devoe $end
$var wire 1 3 Lights~1_combout $end
$var wire 1 4 Haz~input_o $end
$var wire 1 5 Lights[0]~output_o $end
$var wire 1 6 Lights[1]~output_o $end
$var wire 1 7 Lights[2]~output_o $end
$var wire 1 8 Lights[3]~output_o $end
$var wire 1 9 Lights[4]~output_o $end
$var wire 1 : Lights[5]~output_o $end
$var wire 1 ; clock~input_o $end
$var wire 1 < clock~inputclkctrl_outclk $end
$var wire 1 = reset~input_o $end
$var wire 1 > L~input_o $end
$var wire 1 ? Lights~11_combout $end
$var wire 1 @ Lights~23_combout $end
$var wire 1 A Lights~17_combout $end
$var wire 1 B R~input_o $end
$var wire 1 C Mux5~0_combout $end
$var wire 1 D Lights~18_combout $end
$var wire 1 E Lights~20_combout $end
$var wire 1 F Lights~19_combout $end
$var wire 1 G Lights~21_combout $end
$var wire 1 H Lights~22_combout $end
$var wire 1 I Lights[4]~reg0_q $end
$var wire 1 J Mux4~0_combout $end
$var wire 1 K Mux4~1_combout $end
$var wire 1 L Mux5~1_combout $end
$var wire 1 M Mux5~2_combout $end
$var wire 1 N Lights~5_combout $end
$var wire 1 O Lights~6_combout $end
$var wire 1 P Lights[1]~reg0_q $end
$var wire 1 Q Lights~24_combout $end
$var wire 1 R Lights~25_combout $end
$var wire 1 S Lights~26_combout $end
$var wire 1 T Lights[5]~reg0_q $end
$var wire 1 U Lights~12_combout $end
$var wire 1 V Lights~10_combout $end
$var wire 1 W Lights~13_combout $end
$var wire 1 X Lights~14_combout $end
$var wire 1 Y Lights~15_combout $end
$var wire 1 Z Lights~16_combout $end
$var wire 1 [ Lights[3]~reg0_q $end
$var wire 1 \ Lights~2_combout $end
$var wire 1 ] Lights~0_combout $end
$var wire 1 ^ Lights~3_combout $end
$var wire 1 _ Lights[0]~reg0_q $end
$var wire 1 ` Lights~4_combout $end
$var wire 1 a Lights~7_combout $end
$var wire 1 b Lights~8_combout $end
$var wire 1 c Lights~9_combout $end
$var wire 1 d Lights[2]~reg0_q $end
$upscope $end
$upscope $end
$enddefinitions $end
#0
$dumpvars
0!
0"
0#
0$
0%
0+
0*
0)
0(
0'
0&
x,
0-
1.
x/
10
11
12
03
04
05
06
07
08
09
0:
0;
0<
0=
0>
0?
0@
0A
0B
0C
0D
0E
0F
0G
0H
0I
1J
0K
0L
0M
0N
0O
0P
0Q
0R
0S
0T
0U
0V
0W
0X
0Y
0Z
0[
1\
0]
0^
0_
0`
0a
0b
0c
0d
$end
#25000
1!
1;
1<
0,
#40000
1$
1B
1,
13
1^
#50000
0!
0;
0<
0,
#75000
1!
1;
1<
1,
1_
1`
1]
1L
1F
15
1+
1N
1O
#100000
0!
0;
0<
0,
#125000
1!
1;
1<
1,
1P
1a
0\
16
1*
1b
1c
#150000
0!
0;
0<
0,
#175000
1!
1;
1<
1,
1d
0a
0]
1Q
0O
17
1)
0b
0^
0c
#200000
0!
0;
0<
0,
#225000
1!
1;
1<
1,
0d
0_
0P
1\
0Q
1O
0F
0`
0L
07
05
06
0)
0+
0*
1^
0N
0O
#250000
0$
0!
0B
0;
0<
0,
03
0^
#275000
1!
1;
1<
1,
#300000
0!
0;
0<
0,
#325000
1!
1;
1<
1,
#350000
0!
0;
0<
0,
#375000
1!
1;
1<
1,
#400000
0!
0;
0<
0,
#425000
1!
1;
1<
1,
#440000
1#
1>
0,
1@
1R
1S
#450000
0!
0;
0<
1,
#475000
1!
1;
1<
0,
1T
0R
0J
1G
1:
1&
1H
#500000
0!
0;
0<
1,
#525000
1!
1;
1<
0,
1I
1V
1U
19
1'
1X
1Y
1Z
#550000
0!
0;
0<
1,
#575000
1!
1;
1<
0,
1[
0\
0Y
1R
1L
1J
1A
18
1(
0Z
0S
1E
0G
0H
#590000
0#
0>
1,
0@
#600000
0!
0;
0<
0,
#625000
1!
1;
1<
1,
0[
0T
0I
1\
1Y
0R
0L
0A
0V
0U
1S
08
0:
09
0(
0&
0'
1Z
0S
0E
0X
0Y
0Z
#650000
0!
0;
0<
0,
#675000
1!
1;
1<
1,
#700000
0!
0;
0<
0,
#725000
1!
1;
1<
1,
#750000
0!
0;
0<
0,
#775000
1!
1;
1<
1,
#800000
0!
0;
0<
0,
#810000
1"
14
1,
1V
1C
1A
1@
13
1W
1M
1D
1E
1R
1^
1Y
1c
1N
1F
1S
1Z
1O
1G
1H
#820000
1%
1=
0,
0c
0^
0Z
0S
0O
0H
#825000
1!
1;
1<
1,
#850000
0%
0!
0=
0;
0<
0,
1c
1^
1Z
1S
1O
1H
#875000
1!
1;
1<
1,
1d
1_
1[
1T
1P
1I
0\
0O
0F
1L
0C
1U
0S
0c
17
15
18
1:
16
19
1)
1+
1(
1&
1*
1'
0^
0G
0M
1X
0H
0Y
0Z
#900000
0"
0!
04
0;
0<
0,
0@
03
#925000
1!
1;
1<
1,
0d
0_
0[
0T
0P
0I
1\
1O
1F
0W
0L
0R
0A
0V
0U
1S
0D
0N
07
05
08
0:
06
09
0)
0+
0(
0&
0*
0'
1G
1Y
0S
0F
0E
0X
0O
1H
1Z
0G
0Y
0H
0Z
#950000
0!
0;
0<
0,
#975000
1!
1;
1<
1,
