LAB4b/simulation/qsim/Gray_code4.msim.vcd
$comment
	File created using the following command:
		vcd file Gray_code4.msim.vcd -direction
$end
$date
	Wed Nov 30 12:31:29 2016
$end
$version
	ModelSim Version 10.1d
$end
$timescale
	1ps
$end
$scope module Gray_code4_vlg_vec_tst $end
$var reg 1 ! clock $end
$var reg 1 " reset $end
$var wire 1 # Q [3] $end
$var wire 1 $ Q [2] $end
$var wire 1 % Q [1] $end
$var wire 1 & Q [0] $end
$var wire 1 ' sampler $end
$scope module i1 $end
$var wire 1 ( gnd $end
$var wire 1 ) vcc $end
$var wire 1 * unknown $end
$var tri1 1 + devclrn $end
$var tri1 1 , devpor $end
$var tri1 1 - devoe $end
$var wire 1 . Q[0]~output_o $end
$var wire 1 / Q[1]~output_o $end
$var wire 1 0 Q[2]~output_o $end
$var wire 1 1 Q[3]~output_o $end
$var wire 1 2 clock~input_o $end
$var wire 1 3 reset~input_o $end
$var wire 1 4 Mux1~0_combout $end
$var wire 1 5 present_state~2_combout $end
$var wire 1 6 present_state~3_combout $end
$var wire 1 7 present_state~4_combout $end
$var wire 1 8 Mux2~0_combout $end
$var wire 1 9 present_state~1_combout $end
$var wire 1 : present_state~0_combout $end
$var wire 1 ; present_state [3] $end
$var wire 1 < present_state [2] $end
$var wire 1 = present_state [1] $end
$var wire 1 > present_state [0] $end
$upscope $end
$upscope $end
$enddefinitions $end
#0
$dumpvars
0!
0"
0&
0%
0$
0#
x'
0(
1)
x*
1+
1,
1-
0.
0/
00
01
02
03
04
05
06
07
08
09
1:
0>
0=
0<
0;
$end
#25000
1!
12
0'
1>
18
1.
1&
19
#50000
0!
02
1'
#75000
1!
12
0'
1=
0:
1/
1%
#100000
0!
02
1'
#125000
1!
12
0'
0>
14
0.
0&
15
#150000
0!
02
1'
#160000
1"
13
0'
09
05
#175000
1!
12
1'
0=
08
04
0/
0%
#200000
0!
02
0'
#225000
1!
12
1'
#250000
0!
02
0'
#275000
1!
12
1'
#300000
0!
02
0'
#320000
0"
03
1'
1:
#325000
1!
12
0'
1>
18
1.
1&
19
#350000
0!
02
1'
#375000
1!
12
0'
1=
0:
1/
1%
#400000
0!
02
1'
#425000
1!
12
0'
0>
14
0.
0&
15
#450000
0!
02
1'
#475000
1!
12
0'
1<
1:
10
1$
#500000
0!
02
1'
#525000
1!
12
0'
1>
08
1.
1&
09
#550000
0!
02
1'
#575000
1!
12
0'
0=
0:
16
0/
0%
#600000
0!
02
1'
#625000
1!
12
0'
0>
17
0.
0&
#650000
0!
02
1'
#675000
1!
12
0'
1;
1:
11
1#
#700000
0!
02
1'
#725000
1!
12
0'
1>
18
1.
1&
19
#750000
0!
02
1'
#775000
1!
12
0'
1=
0:
1/
1%
#800000
0!
02
1'
#825000
1!
12
0'
0>
04
0.
0&
05
#850000
0!
02
1'
#875000
1!
12
0'
0<
1:
00
0$
#900000
0!
02
1'
#925000
1!
12
0'
1>
08
1.
1&
09
#950000
0!
02
1'
#975000
1!
12
0'
0=
0:
06
0/
0%
